Lab 1
…
QUESTION 1

For each demographic group listed below, determine which word(s) in this study was the most and least familiar on average.

People below the age of 20 Non-white women White men above the age of 30 Helpful functions: filter(), arrange(), desc(), top_n()

hiphop_clean %>% 
  group_by(word) %>% 
  filter(age < 20) %>% 
  summarize(data1 = mean(familiarity, na.rm = TRUE)) %>% 
  arrange(desc(data1)) %>% 
  filter(data1 > 4 | data1 < 2) %>% 
  arrange(data1)

## # A tibble: 46 x 2
##    word              data1
##    <fct>             <dbl>
##  1 catch the vapors   1.03
##  2 domino             1.03
##  3 The Nation         1.04
##  4 face gator         1.10
##  5 rollie             1.10
##  6 break someone out  1.11
##  7 dollar cab         1.11
##  8 saditty            1.11
##  9 grip grain         1.12
## 10 humming            1.12
## #  with 36 more rows

hiphop_clean %>% 
  group_by(word) %>% 
  filter(clean_ethnic == 'non white') %>% 
  filter(sex == 'Female') %>% 
  summarize(data2 = mean(familiarity, na.rm = TRUE)) %>% 
  arrange(desc(data2)) %>% 
  filter(data2 > 4 | data2 < 2) %>% 
  arrange(data2)

## # A tibble: 45 x 2
##    word              data2
##    <fct>             <dbl>
##  1 break someone out  1   
##  2 dukey rope         1   
##  3 plex               1   
##  4 rollie             1   
##  5 The Nation         1.04
##  6 dollar cab         1.08
##  7 domino             1.08
##  8 catch the vapors   1.12
##  9 crossroads         1.15
## 10 face gator         1.15
## #  with 35 more rows

hiphop_clean %>% 
  group_by(word) %>% 
  filter(age > 30) %>% 
  filter(clean_ethnic == 'white') %>% 
  filter(sex == 'Male') %>% 
  summarize(data3 = mean(familiarity, na.rm = TRUE)) %>% 
  arrange(desc(data3)) %>% 
  filter(data3 > 4 | data3 < 2) %>% 
  arrange(data3)

## # A tibble: 42 x 2
##    word              data3
##    <fct>             <dbl>
##  1 ay yo trip            1
##  2 beezy                 1
##  3 break someone out     1
##  4 catch the vapors      1
##  5 crossroads            1
##  6 crump                 1
##  7 dap                   1
##  8 dollar cab            1
##  9 domino                1
## 10 duckets               1
## #  with 32 more rows
…
hiphop_clean %>% 
  mutate(size = case_when(
    city <= 12807 ~ 'small',
    city > 12807 & (city <= 103486) ~ 'medium',
    city > 103486 ~ 'large')
  )

## # A tibble: 10,752 x 40
##    word  subj  sex     age ethnic   city county  intl vocal classical  folk
##    <fct> <fct> <fct> <dbl> <fct>   <dbl>  <dbl> <dbl> <dbl>     <dbl> <dbl>
##  1 [to  p15   Fema    20 white   33283 1.16e6     0     0         0     0
##  2 [to  p53   Fema    17 white   34033 3.96e5     0     0         0     0
##  3 [to  p136  Male     41 white    8789 5.87e4     0     2         0     0
##  4 [to  p36   Fema    18 white     712 1.49e5     0     0         0     1
##  5 [to  p118  Fema    18 white   24280 1.54e5     0     3         3     0
##  6 [to  p106  Male     19 white  281262 5.06e5     0     0         0     0
##  7 [to  p70   Fema    18 white  385542 1.16e6     0     0         0     2
##  8 [to  p107  Male     18 white     326 5.06e5     0     0         0     0
##  9 [to  p102  Male     19 asian    8471 1.01e5     0     0         0     0
## 10 [to  p83   Male     19 white   72878 1.16e6     0     1         0     0
## #  with 10,742 more rows, and 29 more variables: rock <dbl>, country <dbl>,
## #   pop <dbl>, alternative <dbl>, hiphop <dbl>, unclassifiable <dbl>,
## #   countyBlack <dbl>, jayz <dbl>, barkley <dbl>, boondocks <dbl>,
## #   monique <dbl>, bieber <dbl>, asianMove <dbl>, blackMove <dbl>,
## #   hispanicMove <dbl>, nativeMove <dbl>, SAAMEMove <dbl>, whiteMove <dbl>,
## #   blackWeekly <dbl>, jayz1 <dbl>, boondocks1 <dbl>, familiarity <dbl>,
## #   trial <dbl>, fam1 <dbl>, popularityScore <dbl>, numPreferredArtists <dbl>,
## #   numOverallArtists <dbl>, clean_ethnic <fct>, size <chr>
…
Determine which subject is secretly Bieber, and justify your answer.

Hint: Refer again to the dataset description. There is another clue about Biebers identity.

hiphop_clean %>% 
  filter(sex == 'Male') %>% 
  filter(clean_ethnic == 'white') %>% 
  filter(age >= 17 & age <= 23) %>% 
  filter(city >= 10000 & city <= 60000) %>% 
  filter(bieber >= 5.0) %>% 
  filter(jayz == 5) %>% 
  arrange(desc(bieber))

## # A tibble: 64 x 39
##    word  subj  sex     age ethnic  city county  intl vocal classical  folk  rock
##    <fct> <fct> <fct> <dbl> <fct>  <dbl>  <dbl> <dbl> <dbl>     <dbl> <dbl> <dbl>
##  1 [to  p17   Male     18 white  56377 331582     0     1         0     0     1
##  2 5-0   p17   Male     18 white  56377 331582     0     1         0     0     1
##  3 A-to p17   Male     18 white  56377 331582     0     1         0     0     1
##  4 ashy  p17   Male     18 white  56377 331582     0     1         0     0     1
##  5 ay y p17   Male     18 white  56377 331582     0     1         0     0     1
##  6 ball p17   Male     18 white  56377 331582     0     1         0     0     1
##  7 beezy p17   Male     18 white  56377 331582     0     1         0     0     1
##  8 bones p17   Male     18 white  56377 331582     0     1         0     0     1
##  9 boo   p17   Male     18 white  56377 331582     0     1         0     0     1
## 10 boug p17   Male     18 white  56377 331582     0     1         0     0     1
## #  with 54 more rows, and 27 more variables: country <dbl>, pop <dbl>,
## #   alternative <dbl>, hiphop <dbl>, unclassifiable <dbl>, countyBlack <dbl>,
## #   jayz <dbl>, barkley <dbl>, boondocks <dbl>, monique <dbl>, bieber <dbl>,
## #   asianMove <dbl>, blackMove <dbl>, hispanicMove <dbl>, nativeMove <dbl>,
## #   SAAMEMove <dbl>, whiteMove <dbl>, blackWeekly <dbl>, jayz1 <dbl>,
## #   boondocks1 <dbl>, familiarity <dbl>, trial <dbl>, fam1 <dbl>,
## #   popularityScore <dbl>, numPreferredArtists <dbl>, numOverallArtists <dbl>,
## #   clean_ethnic <fct>
…
hiphop_clean %>% 
  filter(bieber == 6) %>% 
  filter(hiphop >= 8) %>% 
  filter(familiarity == 5) %>% 
  group_by(word) %>% 
  #select(word, bieber, hiphop, fam1, familiarity) %>% 
  distinct(hiphop_clean,word, .keep_all = TRUE)

## Warning: Trying to compute distinct() for variables not found in the data:
## - `hiphop_clean`
## This is an error, but only a warning is raised for compatibility reasons.
## The following variables will be used:
## - word

## # A tibble: 26 x 39
## # Groups:   word [26]
##    word  subj  sex     age ethnic   city county  intl vocal classical  folk
##    <fct> <fct> <fct> <dbl> <fct>   <dbl>  <dbl> <dbl> <dbl>     <dbl> <dbl>
##  1 [to  p46   Fema    20 white  281262 5.06e5     0     0         0     0
##  2 5-0   p20   Fema    18 afric 385542 1.16e6     0     0         0     0
##  3 A-to p20   Fema    18 afric 385542 1.16e6     0     0         0     0
##  4 ashy  p20   Fema    18 afric 385542 1.16e6     0     0         0     0
##  5 ball p46   Fema    20 white  281262 5.06e5     0     0         0     0
##  6 boo   p20   Fema    18 afric 385542 1.16e6     0     0         0     0
##  7 boug p20   Fema    18 afric 385542 1.16e6     0     0         0     0
##  8 ched p20   Fema    18 afric 385542 1.16e6     0     0         0     0
##  9 chee p20   Fema    18 afric 385542 1.16e6     0     0         0     0
## 10 CP t p46   Fema    20 white  281262 5.06e5     0     0         0     0
## #  with 16 more rows, and 28 more variables: rock <dbl>, country <dbl>,
## #   pop <dbl>, alternative <dbl>, hiphop <dbl>, unclassifiable <dbl>,
## #   countyBlack <dbl>, jayz <dbl>, barkley <dbl>, boondocks <dbl>,
## #   monique <dbl>, bieber <dbl>, asianMove <dbl>, blackMove <dbl>,
## #   hispanicMove <dbl>, nativeMove <dbl>, SAAMEMove <dbl>, whiteMove <dbl>,
## #   blackWeekly <dbl>, jayz1 <dbl>, boondocks1 <dbl>, familiarity <dbl>,
## #   trial <dbl>, fam1 <dbl>, popularityScore <dbl>, numPreferredArtists <dbl>,
## #   numOverallArtists <dbl>, clean_ethnic <fct>
…
